{
	"hosting": {
		"public": "public",
		"ignore": [
			"firebase.json",
			"**/Icon*",
			"**/.*",
			"**/node_modules/**"
		],
		"headers": [ {
			"source" : "**/**",
			"headers" : [ {
				"key" : "Cache-Control",
				"value" : "max-age=0"
			} ]
		}],
		"rewrites": [
			{
				"source": "**",
				"destination": "/index.html"
			}
		]
	}
}
